<?xml version="1.0" encoding="utf-8"?>
<!-- Generator: Adobe Illustrator 18.0.0, SVG Export Plug-In . SVG Version: 6.00 Build 0)  -->
<!DOCTYPE svg PUBLIC "-//W3C//DTD SVG 1.1//EN" "http://www.w3.org/Graphics/SVG/1.1/DTD/svg11.dtd">
<svg version="1.1" id="Layer_1" xmlns="http://www.w3.org/2000/svg" xmlns:xlink="http://www.w3.org/1999/xlink" x="0px" y="0px"
	 viewBox="0 0 100 100" enable-background="new 0 0 100 100" xml:space="preserve">
<linearGradient id="SVGID_1_" gradientUnits="userSpaceOnUse" x1="804.9795" y1="1789.0001" x2="971.9805" y2="1789.0001" gradientTransform="matrix(0.3472 0 0 -0.3472 -258.5 671.1805)">
	<stop  offset="0" style="stop-color:#07BC9B"/>
	<stop  offset="1" style="stop-color:#1BA49C"/>
</linearGradient>
<path fill="url(#SVGID_1_)" d="M73.5,88.4H26.6c-3.1,0-5.6-2.5-5.6-5.6V55c0-3.1,2.5-5.6,5.6-5.6h0.7V34.4
	c0-12.5,10.2-22.7,22.7-22.7s22.7,10.2,22.7,22.7v15.1h0.7c3.1,0,5.6,2.5,5.6,5.6v27.8C79,85.9,76.5,88.4,73.5,88.4z M26.6,51.2
	c-2.1,0-3.8,1.7-3.8,3.8v27.8c0,2.1,1.7,3.8,3.8,3.8h46.9c2.1,0,3.8-1.7,3.8-3.8V55.1c0-2.1-1.7-3.8-3.8-3.8H26.6z M66.5,49.1H71
	V34.4c0-11.6-9.4-21-21-21s-21,9.4-21,21v14.8h4.5V34.4c0-9.1,7.4-16.5,16.5-16.5s16.5,7.4,16.5,16.5V49.1z M35.3,49.1h29.5V34.4
	c0-8.1-6.6-14.8-14.8-14.8s-14.8,6.6-14.8,14.8V49.1z"/>
<linearGradient id="SVGID_2_" gradientUnits="userSpaceOnUse" x1="868.0795" y1="1730.5001" x2="909.0795" y2="1730.5001" gradientTransform="matrix(0.3472 0 0 -0.3472 -258.5 671.1805)">
	<stop  offset="0" style="stop-color:#07BC9B"/>
	<stop  offset="1" style="stop-color:#1BA49C"/>
</linearGradient>
<path fill="url(#SVGID_2_)" d="M50,82.1c-2.2,0-4-1.8-4-4v-6.6c-1.9-1.3-3.1-3.5-3.1-5.9c0-3.9,3.2-7.1,7.1-7.1s7.1,3.2,7.1,7.1
	c0,2.4-1.2,4.6-3.1,5.9v6.6C54,80.3,52.2,82.1,50,82.1z M47.8,71v7.1c0,1.2,1,2.3,2.3,2.3c1.3,0,2.3-1,2.3-2.3V71c0,0,0-0.1,0-0.1
	c0-0.1,0-0.2,0.1-0.3c0.1-0.1,0.1-0.2,0.2-0.3c0,0,0.1,0,0.1-0.1c1.7-1,2.7-2.7,2.7-4.7c0-3-2.4-5.4-5.4-5.4s-5.4,2.4-5.4,5.4
	c0,1.9,1,3.7,2.7,4.7c0,0,0.1,0,0.1,0.1c0.1,0.1,0.2,0.2,0.2,0.3c0.1,0.1,0.1,0.2,0.1,0.3C47.8,71,47.8,71,47.8,71z"/>
</svg>
